<svg width="648" height="408" viewBox="0 0 648 408" fill="none" xmlns="http://www.w3.org/2000/svg">
<path d="M76.936 230V156.784H55.176V142.192H115.08V156.784H93.32V230H76.936ZM122.885 230V164.144H150.437C157.093 164.144 162.117 165.936 165.509 169.52C168.901 173.04 170.597 177.52 170.597 182.96C170.597 186.928 169.605 190.384 167.621 193.328C165.637 196.272 162.949 198.448 159.557 199.856L172.229 230H158.885L147.941 202.544H135.173V230H122.885ZM135.173 191.696H148.709C151.717 191.696 153.893 190.928 155.237 189.392C156.645 187.856 157.349 185.712 157.349 182.96C157.349 180.528 156.677 178.608 155.333 177.2C154.053 175.792 152.005 175.088 149.189 175.088H135.173V191.696ZM173.938 230L195.154 164.144H209.458L230.674 230H218.098L214.066 217.04H189.778L185.842 230H173.938ZM193.138 206.096H210.706L204.082 184.112C203.762 182.96 203.442 181.68 203.122 180.272C202.802 178.864 202.546 177.68 202.354 176.72C202.226 175.696 202.162 175.184 202.162 175.184H201.778C201.778 175.184 201.682 175.728 201.49 176.816C201.298 177.84 201.042 179.056 200.722 180.464C200.466 181.872 200.178 183.088 199.858 184.112L193.138 206.096ZM236.51 230V164.144H257.918C266.11 164.144 272.542 166.832 277.214 172.208C281.95 177.52 284.318 185.488 284.318 196.112C284.318 207.376 281.95 215.856 277.214 221.552C272.542 227.184 266.11 230 257.918 230H236.51ZM248.798 219.056H256.766C261.31 219.056 264.926 217.36 267.614 213.968C270.302 210.512 271.646 205.36 271.646 198.512V193.712C271.646 187.504 270.302 182.864 267.614 179.792C264.926 176.656 261.31 175.088 256.766 175.088H248.798V219.056ZM293.323 230V164.144H335.275V175.088H305.611V190.832H331.051V201.776H305.611V219.056H335.851V230H293.323ZM402.738 231.536C391.389 231.536 382.472 227.824 375.986 220.4C369.501 212.976 366.258 201.541 366.258 186.096C366.258 170.565 369.501 159.131 375.986 151.792C382.472 144.368 391.389 140.656 402.738 140.656C414.088 140.656 423.005 144.368 429.49 151.792C435.976 159.131 439.218 170.565 439.218 186.096C439.218 201.541 435.976 212.976 429.49 220.4C423.005 227.824 414.088 231.536 402.738 231.536ZM402.738 217.456C409.309 217.456 414.216 214.981 417.458 210.032C420.701 204.997 422.322 198.085 422.322 189.296V182.896C422.322 174.107 420.701 167.237 417.458 162.288C414.216 157.253 409.309 154.736 402.738 154.736C396.253 154.736 391.346 157.253 388.018 162.288C384.776 167.237 383.154 174.107 383.154 182.896V189.296C383.154 198.085 384.776 204.997 388.018 210.032C391.346 214.981 396.253 217.456 402.738 217.456ZM449.291 230V164.144H460.139L480.491 200.432C480.875 200.944 481.291 201.712 481.739 202.736C482.187 203.696 482.571 204.592 482.891 205.424C483.275 206.192 483.467 206.576 483.467 206.576L483.755 206.288C483.755 206.288 483.755 205.904 483.755 205.136C483.755 204.368 483.723 203.536 483.659 202.64C483.659 201.744 483.659 201.136 483.659 200.816V164.144H494.603V230H483.659L463.307 193.712C463.051 193.264 462.667 192.56 462.155 191.6C461.707 190.576 461.291 189.648 460.907 188.816C460.523 187.984 460.331 187.568 460.331 187.568L459.947 187.856C459.947 187.856 459.947 188.208 459.947 188.912C460.011 189.552 460.043 190.32 460.043 191.216C460.107 192.048 460.139 192.752 460.139 193.328V230H449.291Z" fill="white"/>
<path d="M118.96 271.48C115.6 271.48 112.987 270.333 111.12 268.04C109.28 265.747 108.36 262.16 108.36 257.28C108.36 252.427 109.373 248.853 111.4 246.56C113.427 244.24 116.293 243.08 120 243.08C121.84 243.08 123.56 243.467 125.16 244.24C126.76 245.013 128.04 246.147 129 247.64C129.987 249.133 130.48 250.973 130.48 253.16H125.24C125.24 251.293 124.707 249.88 123.64 248.92C122.6 247.96 121.333 247.48 119.84 247.48C117.707 247.48 116.133 248.267 115.12 249.84C114.133 251.387 113.64 253.533 113.64 256.28V258.28C113.64 261.08 114.147 263.253 115.16 264.8C116.173 266.32 117.747 267.08 119.88 267.08C121.453 267.08 122.733 266.48 123.72 265.28C124.733 264.08 125.24 262.48 125.24 260.48V258.56L127.4 260.48H119.08V256.08H130.48V271H127.16L126.28 267.96C125.4 269.107 124.32 269.987 123.04 270.6C121.76 271.187 120.4 271.48 118.96 271.48ZM141.988 271.48C139.294 271.48 137.241 270.6 135.828 268.84C134.441 267.053 133.748 264.267 133.748 260.48C133.748 256.693 134.441 253.92 135.828 252.16C137.241 250.373 139.241 249.48 141.828 249.48C144.361 249.48 146.254 250.373 147.508 252.16C148.788 253.92 149.428 256.693 149.428 260.48V261.68H138.748C138.774 263.547 139.028 265 139.508 266.04C139.988 267.053 140.814 267.56 141.988 267.56C142.814 267.56 143.468 267.213 143.948 266.52C144.428 265.8 144.668 264.813 144.668 263.56H149.428C149.428 266.253 148.721 268.253 147.308 269.56C145.894 270.84 144.121 271.48 141.988 271.48ZM138.788 258.2H144.388C144.388 256.68 144.174 255.507 143.748 254.68C143.348 253.827 142.708 253.4 141.828 253.4C140.814 253.4 140.068 253.827 139.588 254.68C139.134 255.507 138.868 256.68 138.788 258.2ZM159.71 271.48C158.11 271.48 156.737 271.2 155.59 270.64C154.443 270.08 153.563 269.307 152.95 268.32C152.363 267.307 152.07 266.133 152.07 264.8C152.07 264.693 152.07 264.587 152.07 264.48C152.097 264.373 152.11 264.32 152.11 264.32H156.99V264.6C157.017 265.72 157.337 266.493 157.95 266.92C158.563 267.347 159.203 267.56 159.87 267.56C160.51 267.56 161.137 267.4 161.75 267.08C162.363 266.733 162.67 266.133 162.67 265.28C162.67 264.533 162.417 263.973 161.91 263.6C161.43 263.2 160.79 262.893 159.99 262.68C159.217 262.44 158.39 262.2 157.51 261.96C156.657 261.72 155.83 261.387 155.03 260.96C154.257 260.507 153.617 259.893 153.11 259.12C152.63 258.32 152.39 257.24 152.39 255.88C152.39 254.44 152.723 253.253 153.39 252.32C154.057 251.36 154.963 250.653 156.11 250.2C157.257 249.72 158.523 249.48 159.91 249.48C161.243 249.48 162.443 249.707 163.51 250.16C164.603 250.613 165.457 251.267 166.07 252.12C166.71 252.973 167.03 254 167.03 255.2C167.03 255.413 167.017 255.613 166.99 255.8C166.99 255.987 166.99 256.093 166.99 256.12H162.11V256.04C162.083 255.107 161.857 254.44 161.43 254.04C161.03 253.613 160.47 253.4 159.75 253.4C159.27 253.4 158.843 253.493 158.47 253.68C158.097 253.84 157.803 254.08 157.59 254.4C157.377 254.693 157.27 255.053 157.27 255.48C157.27 256.147 157.51 256.653 157.99 257C158.497 257.347 159.137 257.627 159.91 257.84C160.71 258.053 161.537 258.28 162.39 258.52C163.27 258.733 164.097 259.067 164.87 259.52C165.67 259.947 166.31 260.573 166.79 261.4C167.297 262.2 167.55 263.293 167.55 264.68C167.55 266.387 167.203 267.733 166.51 268.72C165.843 269.707 164.91 270.413 163.71 270.84C162.537 271.267 161.203 271.48 159.71 271.48ZM176.432 271.48C175.152 271.48 174.152 271.213 173.432 270.68C172.712 270.12 172.206 269.413 171.912 268.56C171.619 267.68 171.472 266.773 171.472 265.84V254H169.352V249.96H171.472L172.192 244.04H176.272V249.96H179.312V254H176.272V265.72C176.272 266.867 176.832 267.44 177.952 267.44H179.312V271C178.966 271.107 178.512 271.213 177.952 271.32C177.392 271.427 176.886 271.48 176.432 271.48ZM185.77 271.48C185.29 271.48 184.743 271.4 184.13 271.24C183.516 271.08 182.93 270.787 182.37 270.36C181.836 269.933 181.383 269.333 181.01 268.56C180.663 267.787 180.49 266.787 180.49 265.56C180.49 263.667 180.93 262.187 181.81 261.12C182.716 260.053 183.956 259.307 185.53 258.88C187.103 258.427 188.903 258.2 190.93 258.2V256C190.93 255.28 190.796 254.667 190.53 254.16C190.263 253.653 189.663 253.4 188.73 253.4C187.743 253.4 187.076 253.64 186.73 254.12C186.383 254.6 186.21 255.093 186.21 255.6V256.2H181.53C181.503 256.067 181.49 255.933 181.49 255.8C181.49 255.667 181.49 255.507 181.49 255.32C181.49 253.56 182.13 252.147 183.41 251.08C184.716 250.013 186.45 249.48 188.61 249.48C191.063 249.48 192.863 250.027 194.01 251.12C195.183 252.187 195.77 253.707 195.77 255.68V266.04C195.77 266.547 195.89 266.907 196.13 267.12C196.37 267.333 196.623 267.44 196.89 267.44H197.85V270.84C197.583 270.973 197.223 271.107 196.77 271.24C196.316 271.4 195.73 271.48 195.01 271.48C194.05 271.48 193.25 271.227 192.61 270.72C191.97 270.213 191.53 269.547 191.29 268.72H191.09C190.503 269.547 189.823 270.213 189.05 270.72C188.276 271.227 187.183 271.48 185.77 271.48ZM187.77 267.48C188.543 267.48 189.156 267.267 189.61 266.84C190.063 266.413 190.396 265.853 190.61 265.16C190.823 264.467 190.93 263.707 190.93 262.88V261.68C189.996 261.68 189.103 261.787 188.25 262C187.423 262.187 186.743 262.533 186.21 263.04C185.676 263.52 185.41 264.213 185.41 265.12C185.41 265.84 185.596 266.413 185.97 266.84C186.343 267.267 186.943 267.48 187.77 267.48ZM181.89 246.96C181.89 246.213 182.023 245.467 182.29 244.72C182.556 243.973 182.97 243.347 183.53 242.84C184.116 242.333 184.876 242.08 185.81 242.08C186.476 242.08 187.09 242.2 187.65 242.44C188.236 242.68 188.81 242.933 189.37 243.2C189.956 243.44 190.543 243.56 191.13 243.56C191.556 243.56 191.903 243.453 192.17 243.24C192.436 243.027 192.61 242.64 192.69 242.08H195.33C195.33 242.8 195.196 243.547 194.93 244.32C194.663 245.067 194.236 245.693 193.65 246.2C193.09 246.707 192.33 246.96 191.37 246.96C190.73 246.96 190.116 246.84 189.53 246.6C188.97 246.333 188.41 246.08 187.85 245.84C187.29 245.6 186.703 245.48 186.09 245.48C185.663 245.48 185.316 245.6 185.05 245.84C184.783 246.053 184.61 246.427 184.53 246.96H181.89ZM208.212 271.48C205.412 271.48 203.305 270.6 201.892 268.84C200.505 267.053 199.812 264.267 199.812 260.48C199.812 256.693 200.505 253.92 201.892 252.16C203.305 250.373 205.412 249.48 208.212 249.48C211.012 249.48 213.105 250.373 214.492 252.16C215.905 253.92 216.612 256.693 216.612 260.48C216.612 264.267 215.905 267.053 214.492 268.84C213.105 270.6 211.012 271.48 208.212 271.48ZM208.212 267.44C209.465 267.44 210.345 266.92 210.852 265.88C211.359 264.813 211.612 263.267 211.612 261.24V259.72C211.612 257.693 211.359 256.16 210.852 255.12C210.345 254.053 209.465 253.52 208.212 253.52C206.985 253.52 206.105 254.053 205.572 255.12C205.065 256.16 204.812 257.693 204.812 259.72V261.24C204.812 263.267 205.065 264.813 205.572 265.88C206.105 266.92 206.985 267.44 208.212 267.44ZM236.793 271.48C234.099 271.48 232.046 270.6 230.633 268.84C229.246 267.053 228.553 264.267 228.553 260.48C228.553 256.693 229.246 253.92 230.633 252.16C232.046 250.373 234.046 249.48 236.633 249.48C239.166 249.48 241.059 250.373 242.313 252.16C243.593 253.92 244.233 256.693 244.233 260.48V261.68H233.553C233.579 263.547 233.833 265 234.313 266.04C234.793 267.053 235.619 267.56 236.793 267.56C237.619 267.56 238.273 267.213 238.753 266.52C239.233 265.8 239.473 264.813 239.473 263.56H244.233C244.233 266.253 243.526 268.253 242.113 269.56C240.699 270.84 238.926 271.48 236.793 271.48ZM233.593 258.2H239.193C239.193 256.68 238.979 255.507 238.553 254.68C238.153 253.827 237.513 253.4 236.633 253.4C235.619 253.4 234.873 253.827 234.393 254.68C233.939 255.507 233.673 256.68 233.593 258.2ZM266.936 271.48C263.496 271.48 260.816 270.32 258.896 268C256.976 265.68 256.016 262.107 256.016 257.28C256.016 252.427 256.976 248.853 258.896 246.56C260.816 244.24 263.496 243.08 266.936 243.08C268.856 243.08 270.576 243.453 272.096 244.2C273.616 244.947 274.816 246.107 275.696 247.68C276.576 249.253 277.016 251.28 277.016 253.76H271.776C271.776 251.627 271.323 250.053 270.416 249.04C269.536 248 268.376 247.48 266.936 247.48C265.043 247.48 263.63 248.267 262.696 249.84C261.763 251.387 261.296 253.533 261.296 256.28V258.28C261.296 261.027 261.776 263.187 262.736 264.76C263.696 266.307 265.15 267.08 267.096 267.08C268.59 267.08 269.776 266.573 270.656 265.56C271.563 264.52 272.016 262.947 272.016 260.84H277.016C277.016 263.24 276.576 265.227 275.696 266.8C274.816 268.373 273.616 269.547 272.096 270.32C270.603 271.093 268.883 271.48 266.936 271.48ZM284.168 271.48C283.688 271.48 283.141 271.4 282.528 271.24C281.915 271.08 281.328 270.787 280.768 270.36C280.235 269.933 279.781 269.333 279.408 268.56C279.061 267.787 278.888 266.787 278.888 265.56C278.888 263.667 279.328 262.187 280.208 261.12C281.115 260.053 282.355 259.307 283.928 258.88C285.501 258.427 287.301 258.2 289.328 258.2V256C289.328 255.28 289.195 254.667 288.928 254.16C288.661 253.653 288.061 253.4 287.128 253.4C286.141 253.4 285.475 253.64 285.128 254.12C284.781 254.6 284.608 255.093 284.608 255.6V256.2H279.928C279.901 256.067 279.888 255.933 279.888 255.8C279.888 255.667 279.888 255.507 279.888 255.32C279.888 253.56 280.528 252.147 281.808 251.08C283.115 250.013 284.848 249.48 287.008 249.48C289.461 249.48 291.261 250.027 292.408 251.12C293.581 252.187 294.168 253.707 294.168 255.68V266.04C294.168 266.547 294.288 266.907 294.528 267.12C294.768 267.333 295.021 267.44 295.288 267.44H296.248V270.84C295.981 270.973 295.621 271.107 295.168 271.24C294.715 271.4 294.128 271.48 293.408 271.48C292.448 271.48 291.648 271.227 291.008 270.72C290.368 270.213 289.928 269.547 289.688 268.72H289.488C288.901 269.547 288.221 270.213 287.448 270.72C286.675 271.227 285.581 271.48 284.168 271.48ZM286.168 267.48C286.941 267.48 287.555 267.267 288.008 266.84C288.461 266.413 288.795 265.853 289.008 265.16C289.221 264.467 289.328 263.707 289.328 262.88V261.68C288.395 261.68 287.501 261.787 286.648 262C285.821 262.187 285.141 262.533 284.608 263.04C284.075 263.52 283.808 264.213 283.808 265.12C283.808 265.84 283.995 266.413 284.368 266.84C284.741 267.267 285.341 267.48 286.168 267.48ZM298.77 277.92V249.96H302.77L303.25 252.56H303.45C303.984 251.547 304.664 250.787 305.49 250.28C306.317 249.747 307.224 249.48 308.21 249.48C310.29 249.48 311.93 250.373 313.13 252.16C314.357 253.92 314.97 256.707 314.97 260.52C314.97 263.053 314.677 265.133 314.09 266.76C313.53 268.387 312.757 269.587 311.77 270.36C310.81 271.107 309.704 271.48 308.45 271.48C307.384 271.48 306.424 271.253 305.57 270.8C304.744 270.32 304.144 269.667 303.77 268.84H303.57V277.92H298.77ZM306.77 267.12C307.944 267.12 308.77 266.613 309.25 265.6C309.73 264.587 309.97 263.133 309.97 261.24V259.72C309.97 257.827 309.73 256.373 309.25 255.36C308.77 254.347 307.944 253.84 306.77 253.84C305.624 253.84 304.797 254.347 304.29 255.36C303.81 256.373 303.57 257.827 303.57 259.72V261.16C303.57 263.053 303.81 264.52 304.29 265.56C304.797 266.6 305.624 267.12 306.77 267.12ZM322.449 271.48C321.969 271.48 321.423 271.4 320.809 271.24C320.196 271.08 319.609 270.787 319.049 270.36C318.516 269.933 318.063 269.333 317.689 268.56C317.343 267.787 317.169 266.787 317.169 265.56C317.169 263.667 317.609 262.187 318.489 261.12C319.396 260.053 320.636 259.307 322.209 258.88C323.783 258.427 325.583 258.2 327.609 258.2V256C327.609 255.28 327.476 254.667 327.209 254.16C326.943 253.653 326.343 253.4 325.409 253.4C324.423 253.4 323.756 253.64 323.409 254.12C323.063 254.6 322.889 255.093 322.889 255.6V256.2H318.209C318.183 256.067 318.169 255.933 318.169 255.8C318.169 255.667 318.169 255.507 318.169 255.32C318.169 253.56 318.809 252.147 320.089 251.08C321.396 250.013 323.129 249.48 325.289 249.48C327.743 249.48 329.543 250.027 330.689 251.12C331.863 252.187 332.449 253.707 332.449 255.68V266.04C332.449 266.547 332.569 266.907 332.809 267.12C333.049 267.333 333.303 267.44 333.569 267.44H334.529V270.84C334.263 270.973 333.903 271.107 333.449 271.24C332.996 271.4 332.409 271.48 331.689 271.48C330.729 271.48 329.929 271.227 329.289 270.72C328.649 270.213 328.209 269.547 327.969 268.72H327.769C327.183 269.547 326.503 270.213 325.729 270.72C324.956 271.227 323.863 271.48 322.449 271.48ZM324.449 267.48C325.223 267.48 325.836 267.267 326.289 266.84C326.743 266.413 327.076 265.853 327.289 265.16C327.503 264.467 327.609 263.707 327.609 262.88V261.68C326.676 261.68 325.783 261.787 324.929 262C324.103 262.187 323.423 262.533 322.889 263.04C322.356 263.52 322.089 264.213 322.089 265.12C322.089 265.84 322.276 266.413 322.649 266.84C323.023 267.267 323.623 267.48 324.449 267.48ZM344.452 271.48C341.705 271.48 339.692 270.6 338.412 268.84C337.132 267.053 336.492 264.267 336.492 260.48C336.492 256.693 337.145 253.92 338.452 252.16C339.758 250.373 341.705 249.48 344.292 249.48C346.532 249.48 348.318 250.147 349.652 251.48C350.985 252.813 351.652 254.947 351.652 257.88H346.732C346.732 256.387 346.532 255.293 346.132 254.6C345.732 253.88 345.118 253.52 344.292 253.52C343.278 253.52 342.558 254.053 342.132 255.12C341.705 256.16 341.492 257.693 341.492 259.72V261.24C341.492 263.267 341.718 264.813 342.172 265.88C342.625 266.92 343.385 267.44 344.452 267.44C345.305 267.44 345.918 267.08 346.292 266.36C346.692 265.613 346.892 264.52 346.892 263.08H351.652C351.652 265.027 351.358 266.627 350.772 267.88C350.185 269.107 349.345 270.013 348.252 270.6C347.185 271.187 345.918 271.48 344.452 271.48ZM355.254 271V249.96H360.054V271H355.254ZM355.214 246.68V242.08H360.054V246.68H355.214ZM369.635 271.48C368.355 271.48 367.355 271.213 366.635 270.68C365.915 270.12 365.409 269.413 365.115 268.56C364.822 267.68 364.675 266.773 364.675 265.84V254H362.555V249.96H364.675L365.395 244.04H369.475V249.96H372.515V254H369.475V265.72C369.475 266.867 370.035 267.44 371.155 267.44H372.515V271C372.169 271.107 371.715 271.213 371.155 271.32C370.595 271.427 370.089 271.48 369.635 271.48ZM378.973 271.48C378.493 271.48 377.946 271.4 377.333 271.24C376.719 271.08 376.133 270.787 375.573 270.36C375.039 269.933 374.586 269.333 374.213 268.56C373.866 267.787 373.693 266.787 373.693 265.56C373.693 263.667 374.133 262.187 375.013 261.12C375.919 260.053 377.159 259.307 378.733 258.88C380.306 258.427 382.106 258.2 384.133 258.2V256C384.133 255.28 383.999 254.667 383.733 254.16C383.466 253.653 382.866 253.4 381.933 253.4C380.946 253.4 380.279 253.64 379.933 254.12C379.586 254.6 379.413 255.093 379.413 255.6V256.2H374.733C374.706 256.067 374.693 255.933 374.693 255.8C374.693 255.667 374.693 255.507 374.693 255.32C374.693 253.56 375.333 252.147 376.613 251.08C377.919 250.013 379.653 249.48 381.813 249.48C384.266 249.48 386.066 250.027 387.213 251.12C388.386 252.187 388.973 253.707 388.973 255.68V266.04C388.973 266.547 389.093 266.907 389.333 267.12C389.573 267.333 389.826 267.44 390.093 267.44H391.053V270.84C390.786 270.973 390.426 271.107 389.973 271.24C389.519 271.4 388.933 271.48 388.213 271.48C387.253 271.48 386.453 271.227 385.813 270.72C385.173 270.213 384.733 269.547 384.493 268.72H384.293C383.706 269.547 383.026 270.213 382.253 270.72C381.479 271.227 380.386 271.48 378.973 271.48ZM380.973 267.48C381.746 267.48 382.359 267.267 382.813 266.84C383.266 266.413 383.599 265.853 383.813 265.16C384.026 264.467 384.133 263.707 384.133 262.88V261.68C383.199 261.68 382.306 261.787 381.453 262C380.626 262.187 379.946 262.533 379.413 263.04C378.879 263.52 378.613 264.213 378.613 265.12C378.613 265.84 378.799 266.413 379.173 266.84C379.546 267.267 380.146 267.48 380.973 267.48ZM400.975 271.48C398.228 271.48 396.215 270.6 394.935 268.84C393.655 267.053 393.015 264.267 393.015 260.48C393.015 256.693 393.668 253.92 394.975 252.16C396.282 250.373 398.228 249.48 400.815 249.48C403.055 249.48 404.842 250.147 406.175 251.48C407.508 252.813 408.175 254.947 408.175 257.88H403.255C403.255 256.387 403.055 255.293 402.655 254.6C402.255 253.88 401.642 253.52 400.815 253.52C399.802 253.52 399.082 254.053 398.655 255.12C398.228 256.16 398.015 257.693 398.015 259.72V261.24C398.015 263.267 398.242 264.813 398.695 265.88C399.148 266.92 399.908 267.44 400.975 267.44C401.828 267.44 402.442 267.08 402.815 266.36C403.215 265.613 403.415 264.52 403.415 263.08H408.175C408.175 265.027 407.882 266.627 407.295 267.88C406.708 269.107 405.868 270.013 404.775 270.6C403.708 271.187 402.442 271.48 400.975 271.48ZM400.575 278.28C399.348 278.28 398.228 278.173 397.215 277.96V276H400.055C400.508 276 400.855 275.933 401.095 275.8C401.362 275.667 401.495 275.413 401.495 275.04C401.495 274.72 401.402 274.48 401.215 274.32C401.028 274.16 400.668 274.08 400.135 274.08H398.815L399.255 270.56H401.975L401.775 272.32C402.628 272.373 403.362 272.6 403.975 273C404.615 273.427 404.935 274.107 404.935 275.04C404.935 275.92 404.682 276.587 404.175 277.04C403.695 277.52 403.122 277.84 402.455 278C401.788 278.187 401.162 278.28 400.575 278.28ZM415.457 271.48C414.977 271.48 414.431 271.4 413.817 271.24C413.204 271.08 412.617 270.787 412.057 270.36C411.524 269.933 411.071 269.333 410.697 268.56C410.351 267.787 410.177 266.787 410.177 265.56C410.177 263.667 410.617 262.187 411.497 261.12C412.404 260.053 413.644 259.307 415.217 258.88C416.791 258.427 418.591 258.2 420.617 258.2V256C420.617 255.28 420.484 254.667 420.217 254.16C419.951 253.653 419.351 253.4 418.417 253.4C417.431 253.4 416.764 253.64 416.417 254.12C416.071 254.6 415.897 255.093 415.897 255.6V256.2H411.217C411.191 256.067 411.177 255.933 411.177 255.8C411.177 255.667 411.177 255.507 411.177 255.32C411.177 253.56 411.817 252.147 413.097 251.08C414.404 250.013 416.137 249.48 418.297 249.48C420.751 249.48 422.551 250.027 423.697 251.12C424.871 252.187 425.457 253.707 425.457 255.68V266.04C425.457 266.547 425.577 266.907 425.817 267.12C426.057 267.333 426.311 267.44 426.577 267.44H427.537V270.84C427.271 270.973 426.911 271.107 426.457 271.24C426.004 271.4 425.417 271.48 424.697 271.48C423.737 271.48 422.937 271.227 422.297 270.72C421.657 270.213 421.217 269.547 420.977 268.72H420.777C420.191 269.547 419.511 270.213 418.737 270.72C417.964 271.227 416.871 271.48 415.457 271.48ZM417.457 267.48C418.231 267.48 418.844 267.267 419.297 266.84C419.751 266.413 420.084 265.853 420.297 265.16C420.511 264.467 420.617 263.707 420.617 262.88V261.68C419.684 261.68 418.791 261.787 417.937 262C417.111 262.187 416.431 262.533 415.897 263.04C415.364 263.52 415.097 264.213 415.097 265.12C415.097 265.84 415.284 266.413 415.657 266.84C416.031 267.267 416.631 267.48 417.457 267.48ZM411.577 246.96C411.577 246.213 411.711 245.467 411.977 244.72C412.244 243.973 412.657 243.347 413.217 242.84C413.804 242.333 414.564 242.08 415.497 242.08C416.164 242.08 416.777 242.2 417.337 242.44C417.924 242.68 418.497 242.933 419.057 243.2C419.644 243.44 420.231 243.56 420.817 243.56C421.244 243.56 421.591 243.453 421.857 243.24C422.124 243.027 422.297 242.64 422.377 242.08H425.017C425.017 242.8 424.884 243.547 424.617 244.32C424.351 245.067 423.924 245.693 423.337 246.2C422.777 246.707 422.017 246.96 421.057 246.96C420.417 246.96 419.804 246.84 419.217 246.6C418.657 246.333 418.097 246.08 417.537 245.84C416.977 245.6 416.391 245.48 415.777 245.48C415.351 245.48 415.004 245.6 414.737 245.84C414.471 246.053 414.297 246.427 414.217 246.96H411.577ZM437.899 271.48C435.099 271.48 432.993 270.6 431.579 268.84C430.193 267.053 429.499 264.267 429.499 260.48C429.499 256.693 430.193 253.92 431.579 252.16C432.993 250.373 435.099 249.48 437.899 249.48C440.699 249.48 442.793 250.373 444.179 252.16C445.593 253.92 446.299 256.693 446.299 260.48C446.299 264.267 445.593 267.053 444.179 268.84C442.793 270.6 440.699 271.48 437.899 271.48ZM437.899 267.44C439.153 267.44 440.033 266.92 440.539 265.88C441.046 264.813 441.299 263.267 441.299 261.24V259.72C441.299 257.693 441.046 256.16 440.539 255.12C440.033 254.053 439.153 253.52 437.899 253.52C436.673 253.52 435.793 254.053 435.259 255.12C434.753 256.16 434.499 257.693 434.499 259.72V261.24C434.499 263.267 434.753 264.813 435.259 265.88C435.793 266.92 436.673 267.44 437.899 267.44Z" fill="#2ACB27"/>
<path d="M568.5 193.279L613.033 135.762C618.292 128.97 615.786 121.667 607.464 119.535L537 101.477" stroke="#2ACB27" stroke-width="20" stroke-miterlimit="10" stroke-linecap="round" stroke-linejoin="round"/>
<path d="M523.909 199.279L560.821 151.873C565.18 146.275 563.119 140.269 556.241 138.526L498 123.771" stroke="#2ACB27" stroke-width="20" stroke-miterlimit="10" stroke-linecap="round" stroke-linejoin="round"/>
</svg>
